com/econetwireless/in/webservice/CreditResponse.class
com/econetwireless/epay/business/services/api/ReportingService.class
com/econetwireless/in/webservice/package-info.class
com/econetwireless/in/webservice/CreditSubscriberAccount.class
com/econetwireless/epay/business/services/api/CreditsService.class
com/econetwireless/in/webservice/EnquireBalanceResponse.class
com/econetwireless/in/webservice/BalanceResponse.class
com/econetwireless/epay/business/utils/MessageConverters.class
com/econetwireless/in/webservice/CreditRequest.class
com/econetwireless/in/webservice/CreditSubscriberAccountResponse.class
com/econetwireless/epay/business/services/impl/ReportingServiceImpl.class
com/econetwireless/epay/business/config/RootConfig.class
com/econetwireless/in/webservice/EnquireBalance.class
com/econetwireless/in/webservice/ObjectFactory.class
