/home/tp/Documents/SasaiAssignmentResponse/econet-utils/src/main/java/com/econetwireless/utils/messages/AirtimeTopupRequest.java
/home/tp/Documents/SasaiAssignmentResponse/econet-utils/src/main/java/com/econetwireless/utils/pojo/INCreditResponse.java
/home/tp/Documents/SasaiAssignmentResponse/econet-utils/src/main/java/com/econetwireless/utils/execeptions/EpayException.java
/home/tp/Documents/SasaiAssignmentResponse/econet-utils/src/main/java/com/econetwireless/utils/messages/AirtimeBalanceResponse.java
/home/tp/Documents/SasaiAssignmentResponse/econet-utils/src/main/java/com/econetwireless/utils/pojo/INCreditRequest.java
/home/tp/Documents/SasaiAssignmentResponse/econet-utils/src/main/java/com/econetwireless/utils/execeptions/InvalidMobileNumberException.java
/home/tp/Documents/SasaiAssignmentResponse/econet-utils/src/main/java/com/econetwireless/utils/pojo/INBalanceResponse.java
/home/tp/Documents/SasaiAssignmentResponse/econet-utils/src/main/java/com/econetwireless/utils/constants/SystemConstants.java
/home/tp/Documents/SasaiAssignmentResponse/econet-utils/src/main/java/com/econetwireless/utils/formatters/MobileNumberUtils.java
/home/tp/Documents/SasaiAssignmentResponse/econet-utils/src/main/java/com/econetwireless/utils/keygen/KeyGen.java
/home/tp/Documents/SasaiAssignmentResponse/econet-utils/src/main/java/com/econetwireless/utils/enums/ResponseCode.java
/home/tp/Documents/SasaiAssignmentResponse/econet-utils/src/main/java/com/econetwireless/utils/formatters/UtilityBuilder.java
/home/tp/Documents/SasaiAssignmentResponse/econet-utils/src/main/java/com/econetwireless/utils/formatters/ResponseMarker.java
/home/tp/Documents/SasaiAssignmentResponse/econet-utils/src/main/java/com/econetwireless/utils/messages/AirtimeTopupResponse.java
